{
	"asset":{
		"generator":"Khronos glTF Blender I/O v4.0.44",
		"version":"2.0"
	},
	"scene":0,
	"scenes":[
		{
			"name":"Scene",
			"nodes":[
				0
			]
		}
	],
	"nodes":[
		{
			"mesh":0,
			"name":"Object_2.002"
		}
	],
	"materials":[
		{
			"doubleSided":true,
			"name":"lambert2SG",
			"normalTexture":{
				"index":0
			},
			"pbrMetallicRoughness":{
				"baseColorTexture":{
					"index":1
				},
				"metallicRoughnessTexture":{
					"index":2
				}
			}
		}
	],
	"meshes":[
		{
			"name":"Object_0.002",
			"primitives":[
				{
					"attributes":{
						"POSITION":0,
						"NORMAL":1,
						"TEXCOORD_0":2
					},
					"indices":3,
					"material":0
				}
			]
		}
	],
	"textures":[
		{
			"sampler":0,
			"source":0
		},
		{
			"sampler":0,
			"source":1
		},
		{
			"sampler":0,
			"source":2
		}
	],
	"images":[
		{
			"mimeType":"image/png",
			"name":"lambert2SG_normal",
			"uri":"lambert2SG_normal.png"
		},
		{
			"mimeType":"image/jpeg",
			"name":"lambert2SG_baseColor",
			"uri":"lambert2SG_baseColor.jpg"
		},
		{
			"mimeType":"image/png",
			"name":"lambert2SG_metallicRoughness",
			"uri":"lambert2SG_metallicRoughness.png"
		}
	],
	"accessors":[
		{
			"bufferView":0,
			"componentType":5126,
			"count":1405,
			"max":[
				0.07629283517599106,
				0.23227737843990326,
				0.11923321336507797
			],
			"min":[
				-0.07629281282424927,
				-0.0010727390181273222,
				-0.116858571767807
			],
			"type":"VEC3"
		},
		{
			"bufferView":1,
			"componentType":5126,
			"count":1405,
			"type":"VEC3"
		},
		{
			"bufferView":2,
			"componentType":5126,
			"count":1405,
			"type":"VEC2"
		},
		{
			"bufferView":3,
			"componentType":5123,
			"count":7428,
			"type":"SCALAR"
		}
	],
	"bufferViews":[
		{
			"buffer":0,
			"byteLength":16860,
			"byteOffset":0,
			"target":34962
		},
		{
			"buffer":0,
			"byteLength":16860,
			"byteOffset":16860,
			"target":34962
		},
		{
			"buffer":0,
			"byteLength":11240,
			"byteOffset":33720,
			"target":34962
		},
		{
			"buffer":0,
			"byteLength":14856,
			"byteOffset":44960,
			"target":34963
		}
	],
	"samplers":[
		{
			"magFilter":9729,
			"minFilter":9987
		}
	],
	"buffers":[
		{
			"byteLength":59816,
			"uri":"ducky.bin"
		}
	]
}
