{
	"asset":{
		"generator":"Khronos glTF Blender I/O v4.1.62",
		"version":"2.0"
	},
	"scene":0,
	"scenes":[
		{
			"name":"Scene",
			"nodes":[
				0
			]
		}
	],
	"nodes":[
		{
			"mesh":0,
			"name":"defaultMaterial.002"
		}
	],
	"materials":[
		{
			"doubleSided":true,
			"name":"FantasyScene_Shader",
			"normalTexture":{
				"index":0
			},
			"occlusionTexture":{
				"index":1
			},
			"pbrMetallicRoughness":{
				"baseColorTexture":{
					"index":2
				},
				"metallicRoughnessTexture":{
					"index":1
				}
			}
		}
	],
	"meshes":[
		{
			"name":"defaultMaterial.002",
			"primitives":[
				{
					"attributes":{
						"POSITION":0,
						"NORMAL":1,
						"TEXCOORD_0":2
					},
					"indices":3,
					"material":0
				}
			]
		}
	],
	"textures":[
		{
			"sampler":0,
			"source":0
		},
		{
			"sampler":0,
			"source":1
		},
		{
			"sampler":0,
			"source":2
		}
	],
	"images":[
		{
			"mimeType":"image/png",
			"name":"FantasyScene_Shader_normal",
			"uri":"textures/FantasyScene_Shader_normal.png"
		},
		{
			"mimeType":"image/png",
			"name":"FantasyScene_Shader_metallicRoughness",
			"uri":"textures/FantasyScene_Shader_metallicRoughness.png"
		},
		{
			"mimeType":"image/jpeg",
			"name":"FantasyScene_Shader_baseColor",
			"uri":"textures/FantasyScene_Shader_baseColor.jpg"
		}
	],
	"accessors":[
		{
			"bufferView":0,
			"componentType":5126,
			"count":779,
			"max":[
				0.14330922067165375,
				0.35655272006988525,
				0.19978512823581696
			],
			"min":[
				-0.1553625911474228,
				-0.0008951576892286539,
				-0.12740887701511383
			],
			"type":"VEC3"
		},
		{
			"bufferView":1,
			"componentType":5126,
			"count":779,
			"type":"VEC3"
		},
		{
			"bufferView":2,
			"componentType":5126,
			"count":779,
			"type":"VEC2"
		},
		{
			"bufferView":3,
			"componentType":5123,
			"count":2844,
			"type":"SCALAR"
		}
	],
	"bufferViews":[
		{
			"buffer":0,
			"byteLength":9348,
			"byteOffset":0,
			"target":34962
		},
		{
			"buffer":0,
			"byteLength":9348,
			"byteOffset":9348,
			"target":34962
		},
		{
			"buffer":0,
			"byteLength":6232,
			"byteOffset":18696,
			"target":34962
		},
		{
			"buffer":0,
			"byteLength":5688,
			"byteOffset":24928,
			"target":34963
		}
	],
	"samplers":[
		{
			"magFilter":9729,
			"minFilter":9987
		}
	],
	"buffers":[
		{
			"byteLength":30616,
			"uri":"frog.bin"
		}
	]
}
