{
  "accessors": [
    {
      "bufferView": 2,
      "componentType": 5126,
      "count": 1255,
      "max": [
        1.7389436960220337,
        1.694558024406433,
        0.5201534628868103
      ],
      "min": [
        -1.7389436960220337,
        -1.7833293676376343,
        -0.4929976463317871
      ],
      "type": "VEC3"
    },
    {
      "bufferView": 2,
      "byteOffset": 15060,
      "componentType": 5126,
      "count": 1255,
      "max": [
        1.0,
        0.9953924417495728,
        0.9940462708473206
      ],
      "min": [
        -1.0,
        -0.9915048480033875,
        -1.0
      ],
      "type": "VEC3"
    },
    {
      "bufferView": 1,
      "componentType": 5126,
      "count": 1255,
      "max": [
        1.7707910537719727,
        1.779557704925537
      ],
      "min": [
        -0.6501874923706055,
        -0.6534063816070557
      ],
      "type": "VEC2"
    },
    {
      "bufferView": 0,
      "componentType": 5125,
      "count": 5280,
      "type": "SCALAR"
    },
    {
      "bufferView": 2,
      "byteOffset": 30120,
      "componentType": 5126,
      "count": 34311,
      "max": [
        0.2404407411813736,
        1.0707945823669434,
        5.921849727630615
      ],
      "min": [
        -0.2404407411813736,
        -0.3060664236545563,
        1.199675440788269
      ],
      "type": "VEC3"
    },
    {
      "bufferView": 2,
      "byteOffset": 441852,
      "componentType": 5126,
      "count": 34311,
      "max": [
        0.9810875654220581,
        0.999902606010437,
        0.9999999403953552
      ],
      "min": [
        -0.9810872673988342,
        -0.9999908208847046,
        -0.9999765157699585
      ],
      "type": "VEC3"
    },
    {
      "bufferView": 1,
      "byteOffset": 10040,
      "componentType": 5126,
      "count": 34311,
      "max": [
        1.0,
        1.0000001192092896
      ],
      "min": [
        0.0,
        0.010029819793999195
      ],
      "type": "VEC2"
    },
    {
      "bufferView": 0,
      "byteOffset": 21120,
      "componentType": 5125,
      "count": 110010,
      "type": "SCALAR"
    },
    {
      "bufferView": 2,
      "byteOffset": 853584,
      "componentType": 5126,
      "count": 5013,
      "max": [
        1.5200083255767822,
        1.5200101137161255,
        1.0291160345077515
      ],
      "min": [
        -1.520007848739624,
        -1.5200103521347046,
        -2.6021289825439453
      ],
      "type": "VEC3"
    },
    {
      "bufferView": 2,
      "byteOffset": 913740,
      "componentType": 5126,
      "count": 5013,
      "max": [
        1.0,
        0.9999793171882629,
        1.0
      ],
      "min": [
        -1.0,
        -0.9999793171882629,
        -0.9995028972625732
      ],
      "type": "VEC3"
    },
    {
      "bufferView": 1,
      "byteOffset": 284528,
      "componentType": 5126,
      "count": 5013,
      "max": [
        1.868430733680725,
        1.7112369537353516
      ],
      "min": [
        -0.8684308528900146,
        -0.7953684329986572
      ],
      "type": "VEC2"
    },
    {
      "bufferView": 0,
      "byteOffset": 461160,
      "componentType": 5125,
      "count": 24948,
      "type": "SCALAR"
    },
    {
      "bufferView": 2,
      "byteOffset": 973896,
      "componentType": 5126,
      "count": 2210,
      "max": [
        0.47500836849212646,
        0.47500884532928467,
        -0.8855772614479065
      ],
      "min": [
        -0.47500815987586975,
        -0.47500863671302795,
        -1.3238314390182495
      ],
      "type": "VEC3"
    },
    {
      "bufferView": 2,
      "byteOffset": 1000416,
      "componentType": 5126,
      "count": 2210,
      "max": [
        0.9989982843399048,
        0.9989984631538391,
        0.4358648359775543
      ],
      "min": [
        -0.99899822473526,
        -0.9989983439445496,
        -0.9589924812316895
      ],
      "type": "VEC3"
    },
    {
      "bufferView": 1,
      "byteOffset": 324632,
      "componentType": 5126,
      "count": 2210,
      "max": [
        1.8066288232803345,
        0.5254420638084412
      ],
      "min": [
        1.2797420024871826,
        -0.2859969139099121
      ],
      "type": "VEC2"
    },
    {
      "bufferView": 0,
      "byteOffset": 560952,
      "componentType": 5125,
      "count": 12096,
      "type": "SCALAR"
    },
    {
      "bufferView": 2,
      "byteOffset": 1026936,
      "componentType": 5126,
      "count": 1615,
      "max": [
        0.7438192367553711,
        0.7438197731971741,
        -1.32383131980896
      ],
      "min": [
        -0.7438191771507263,
        -0.7438198924064636,
        -2.5183639526367188
      ],
      "type": "VEC3"
    },
    {
      "bufferView": 2,
      "byteOffset": 1046316,
      "componentType": 5126,
      "count": 1615,
      "max": [
        0.9968572854995728,
        0.996857225894928,
        0.6217585206031799
      ],
      "min": [
        -0.9968572854995728,
        -0.9968572854995728,
        -1.0
      ],
      "type": "VEC3"
    },
    {
      "bufferView": 1,
      "byteOffset": 342312,
      "componentType": 5126,
      "count": 1615,
      "max": [
        1.8684308528900146,
        0.3968982398509979
      ],
      "min": [
        1.4419692754745483,
        -0.23634803295135498
      ],
      "type": "VEC2"
    },
    {
      "bufferView": 0,
      "byteOffset": 609336,
      "componentType": 5125,
      "count": 9324,
      "type": "SCALAR"
    },
    {
      "bufferView": 2,
      "byteOffset": 1065696,
      "componentType": 5126,
      "count": 2043,
      "max": [
        1.0000001192092896,
        1.1038960218429565,
        0.9697612524032593
      ],
      "min": [
        -1.0000001192092896,
        -1.1038960218429565,
        -1.074583888053894
      ],
      "type": "VEC3"
    },
    {
      "bufferView": 2,
      "byteOffset": 1090212,
      "componentType": 5126,
      "count": 2043,
      "max": [
        1.0,
        0.9964146614074707,
        0.9892140030860901
      ],
      "min": [
        -1.0,
        -1.0,
        -0.9908747673034668
      ],
      "type": "VEC3"
    },
    {
      "bufferView": 1,
      "byteOffset": 355232,
      "componentType": 5126,
      "count": 2043,
      "max": [
        0.7526103854179382,
        0.3837330937385559
      ],
      "min": [
        0.39310818910598755,
        0.06395728886127472
      ],
      "type": "VEC2"
    },
    {
      "bufferView": 0,
      "byteOffset": 646632,
      "componentType": 5125,
      "count": 6156,
      "type": "SCALAR"
    }
  ],
  "asset": {
    "extras": {
      "author": "PremModel (https://sketchfab.com/PremModel)",
      "license": "CC-BY-4.0 (http://creativecommons.org/licenses/by/4.0/)",
      "source": "https://sketchfab.com/3d-models/desk-lamp-1b07de2e8652476f849325ce76ed68a5",
      "title": "Desk Lamp"
    },
    "generator": "Sketchfab-16.8.0",
    "version": "2.0"
  },
  "bufferViews": [
    {
      "buffer": 0,
      "byteLength": 671256,
      "name": "floatBufferViews",
      "target": 34963
    },
    {
      "buffer": 0,
      "byteLength": 371576,
      "byteOffset": 671256,
      "byteStride": 8,
      "name": "floatBufferViews",
      "target": 34962
    },
    {
      "buffer": 0,
      "byteLength": 1114728,
      "byteOffset": 1042832,
      "byteStride": 12,
      "name": "floatBufferViews",
      "target": 34962
    }
  ],
  "buffers": [
    {
      "byteLength": 2157560,
      "uri": "scene.bin"
    }
  ],
  "extensionsUsed": [
    "KHR_materials_specular",
    "KHR_materials_emissive_strength"
  ],
  "images": [
    {
      "uri": "textures/Material.001_metallicRoughness.png"
    }
  ],
  "materials": [
    {
      "doubleSided": true,
      "name": "Material.001",
      "pbrMetallicRoughness": {
        "baseColorFactor": [
          0.09709089999999998,
          0.35181600000000024,
          0.7999999999999999,
          1.0
        ],
        "metallicFactor": 0.0,
        "metallicRoughnessTexture": {
          "index": 0
        },
        "roughnessFactor": 0.6567639063280954
      }
    },
    {
      "doubleSided": true,
      "name": "Material.004",
      "pbrMetallicRoughness": {
        "baseColorFactor": [
          0.00489553,
          0.00489553,
          0.00489553,
          1.0
        ],
        "metallicFactor": 0.0,
        "metallicRoughnessTexture": {
          "index": 0
        }
      }
    },
    {
      "doubleSided": true,
      "extensions": {
        "KHR_materials_specular": {
          "specularColorFactor": [
            1.0,
            1.0,
            1.0
          ],
          "specularFactor": 0.6750496763418707
        }
      },
      "name": "Material.003",
      "pbrMetallicRoughness": {
        "baseColorFactor": [
          0.8,
          0.8,
          0.8,
          1.0
        ],
        "roughnessFactor": 0.07161926588728651
      }
    },
    {
      "doubleSided": true,
      "emissiveFactor": [
        1.0,
        1.0,
        1.0
      ],
      "extensions": {
        "KHR_materials_emissive_strength": {
          "emissiveStrength": 10.0
        }
      },
      "name": "Material.002",
      "pbrMetallicRoughness": {
        "baseColorFactor": [
          0.0,
          0.0,
          0.0,
          1.0
        ],
        "metallicFactor": 0.0,
        "roughnessFactor": 0.0
      }
    }
  ],
  "meshes": [
    {
      "name": "lamp stand_Material.001_0",
      "primitives": [
        {
          "attributes": {
            "NORMAL": 1,
            "POSITION": 0,
            "TEXCOORD_0": 2
          },
          "indices": 3,
          "material": 0,
          "mode": 4
        }
      ]
    },
    {
      "name": "tube_Material.004_0",
      "primitives": [
        {
          "attributes": {
            "NORMAL": 5,
            "POSITION": 4,
            "TEXCOORD_0": 6
          },
          "indices": 7,
          "material": 1,
          "mode": 4
        }
      ]
    },
    {
      "name": "lamp_Material.001_0",
      "primitives": [
        {
          "attributes": {
            "NORMAL": 9,
            "POSITION": 8,
            "TEXCOORD_0": 10
          },
          "indices": 11,
          "material": 0,
          "mode": 4
        }
      ]
    },
    {
      "name": "lamp_Material.003_0",
      "primitives": [
        {
          "attributes": {
            "NORMAL": 13,
            "POSITION": 12,
            "TEXCOORD_0": 14
          },
          "indices": 15,
          "material": 2,
          "mode": 4
        }
      ]
    },
    {
      "name": "lamp_Material.002_0",
      "primitives": [
        {
          "attributes": {
            "NORMAL": 17,
            "POSITION": 16,
            "TEXCOORD_0": 18
          },
          "indices": 19,
          "material": 3,
          "mode": 4
        }
      ]
    },
    {
      "name": "on off_Material.004_0",
      "primitives": [
        {
          "attributes": {
            "NORMAL": 21,
            "POSITION": 20,
            "TEXCOORD_0": 22
          },
          "indices": 23,
          "material": 1,
          "mode": 4
        }
      ]
    }
  ],
  "nodes": [
    {
      "children": [
        1
      ],
      "matrix": [
        1.0,
        0.0,
        0.0,
        0.0,
        0.0,
        2.220446049250313e-16,
        -1.0,
        0.0,
        0.0,
        1.0,
        2.220446049250313e-16,
        0.0,
        0.0,
        0.0,
        0.0,
        1.0
      ],
      "name": "Sketchfab_model"
    },
    {
      "children": [
        2
      ],
      "matrix": [
        0.009999999776482582,
        0.0,
        0.0,
        0.0,
        0.0,
        0.0,
        0.009999999776482582,
        0.0,
        0.0,
        -0.009999999776482582,
        0.0,
        0.0,
        0.0,
        0.0,
        0.0,
        1.0
      ],
      "name": "lamp.fbx"
    },
    {
      "children": [
        3
      ],
      "name": "RootNode"
    },
    {
      "children": [
        4,
        5,
        11
      ],
      "matrix": [
        10.310906410217285,
        0.0,
        0.0,
        0.0,
        0.0,
        -1.6798598774981897e-06,
        -10.310906410217148,
        0.0,
        0.0,
        10.310906410217148,
        -1.6798598774981897e-06,
        0.0,
        8.817859509235859e-08,
        0.0,
        0.0,
        1.0
      ],
      "name": "lamp stand"
    },
    {
      "mesh": 0,
      "name": "lamp stand_Material.001_0"
    },
    {
      "children": [
        6,
        7
      ],
      "matrix": [
        1.0,
        0.0,
        0.0,
        0.0,
        0.0,
        1.0,
        0.0,
        0.0,
        0.0,
        0.0,
        1.0,
        0.0,
        -8.551969798986647e-09,
        -0.044385600835084915,
        -0.6919426321983337,
        1.0
      ],
      "name": "tube"
    },
    {
      "mesh": 1,
      "name": "tube_Material.004_0"
    },
    {
      "children": [
        8,
        9,
        10
      ],
      "matrix": [
        1.0,
        1.0514773358097431e-17,
        6.751989466650667e-17,
        0.0,
        1.0514773237412985e-17,
        0.9526456038764337,
        -0.3040826108241293,
        0.0,
        -6.75198905632017e-17,
        0.3040826108241293,
        0.9526456038764337,
        0.0,
        1.3824172739835628e-15,
        -1.1428163051605225,
        6.225854396820068,
        1.0
      ],
      "name": "lamp"
    },
    {
      "mesh": 2,
      "name": "lamp_Material.001_0"
    },
    {
      "mesh": 3,
      "name": "lamp_Material.003_0"
    },
    {
      "mesh": 4,
      "name": "lamp_Material.002_0"
    },
    {
      "children": [
        12
      ],
      "matrix": [
        0.11325850337743759,
        8.912375079522043e-19,
        -6.635674456978067e-18,
        0.0,
        1.4799400721138626e-18,
        0.18140564416420202,
        0.04962439221878925,
        0.0,
        4.078954051014519e-18,
        -0.018369977611119147,
        0.06715281483216408,
        0.0,
        -8.551969798986647e-09,
        -1.0660545825958252,
        0.17245560884475708,
        1.0
      ],
      "name": "on off"
    },
    {
      "mesh": 5,
      "name": "on off_Material.004_0"
    }
  ],
  "samplers": [
    {
      "magFilter": 9729,
      "minFilter": 9987,
      "wrapS": 10497,
      "wrapT": 10497
    }
  ],
  "scene": 0,
  "scenes": [
    {
      "name": "Sketchfab_Scene",
      "nodes": [
        0
      ]
    }
  ],
  "textures": [
    {
      "sampler": 0,
      "source": 0
    }
  ]
}
